<svg width="13" height="17" viewBox="0 0 13 17" fill="none" xmlns="http://www.w3.org/2000/svg">
    <path d="M4.91666 3.22223H9.66666V4.27778H4.91666V3.22223Z" fill="#FE8208"/>
    <path d="M4.91666 5.33334H9.66666V6.3889H4.91666V5.33334Z" fill="#FE8208"/>
    <path d="M4.91666 7.44446H9.66666V8.50001H4.91666V7.44446Z" fill="#FE8208"/>
    <path d="M4.91666 9.55554H9.66666V10.6111H4.91666V9.55554Z" fill="#FE8208"/>
    <path d="M4.91666 11.6667H9.66666V12.7222H4.91666V11.6667Z" fill="#FE8208"/>
    <path d="M2.80554 3.22223H3.8611V4.27778H2.80554V3.22223Z" fill="#FE8208"/>
    <path d="M2.80554 5.33334H3.8611V6.3889H2.80554V5.33334Z" fill="#FE8208"/>
    <path d="M2.80554 7.44446H3.8611V8.50001H2.80554V7.44446Z" fill="#FE8208"/>
    <path d="M2.80554 9.55554H3.8611V10.6111H2.80554V9.55554Z" fill="#FE8208"/>
    <path d="M2.80554 11.6667H3.8611V12.7222H2.80554V11.6667Z" fill="#FE8208"/>
    <path d="M11.7778 0.055542H1.22221C0.942261 0.055542 0.673777 0.166752 0.475822 0.364707C0.277866 0.562662 0.166656 0.831147 0.166656 1.1111V15.8889C0.166656 16.1688 0.277866 16.4373 0.475822 16.6353C0.673777 16.8332 0.942261 16.9444 1.22221 16.9444H11.7778C12.0577 16.9444 12.3262 16.8332 12.5242 16.6353C12.7221 16.4373 12.8333 16.1688 12.8333 15.8889V1.1111C12.8333 0.831147 12.7221 0.562662 12.5242 0.364707C12.3262 0.166752 12.0577 0.055542 11.7778 0.055542ZM11.7778 15.8889H1.22221V1.1111H11.7778V15.8889Z" fill="#FE8208"/>
</svg>
